%YAML 1.1
%TAG !u! tag:unity3d.com,2011:
--- !u!74 &7400000
AnimationClip:
  m_ObjectHideFlags: 0
  m_CorrespondingSourceObject: {fileID: 0}
  m_PrefabInstance: {fileID: 0}
  m_PrefabAsset: {fileID: 0}
  m_Name: ProtagonistDecay
  serializedVersion: 6
  m_Legacy: 0
  m_Compressed: 0
  m_UseHighQualityCurve: 1
  m_RotationCurves: []
  m_CompressedRotationCurves: []
  m_EulerCurves: []
  m_PositionCurves: []
  m_ScaleCurves: []
  m_FloatCurves: []
  m_PPtrCurves:
  - curve:
    - time: 0
      value: {fileID: -1549070849450162739, guid: 0a67756ce4f79dd95bd2db1f21d46b50,
        type: 3}
    - time: 0.05
      value: {fileID: -5407492342766551737, guid: 0a67756ce4f79dd95bd2db1f21d46b50,
        type: 3}
    - time: 0.11666667
      value: {fileID: 1958406919399586573, guid: 0a67756ce4f79dd95bd2db1f21d46b50,
        type: 3}
    - time: 0.16666667
      value: {fileID: -5394594780932205545, guid: 0a67756ce4f79dd95bd2db1f21d46b50,
        type: 3}
    - time: 0.23333333
      value: {fileID: -5857673596709843543, guid: 0a67756ce4f79dd95bd2db1f21d46b50,
        type: 3}
    - time: 0.28333333
      value: {fileID: 264920849789172050, guid: 0a67756ce4f79dd95bd2db1f21d46b50,
        type: 3}
    - time: 0.33333334
      value: {fileID: -6016433232185940920, guid: 0a67756ce4f79dd95bd2db1f21d46b50,
        type: 3}
    - time: 0.41666666
      value: {fileID: -3624368819386776821, guid: 0a67756ce4f79dd95bd2db1f21d46b50,
        type: 3}
    - time: 0.46666667
      value: {fileID: -8601527344891939385, guid: 0a67756ce4f79dd95bd2db1f21d46b50,
        type: 3}
    - time: 0.51666665
      value: {fileID: 5552588835138848469, guid: 0a67756ce4f79dd95bd2db1f21d46b50,
        type: 3}
    - time: 0.5833333
      value: {fileID: 6323273551467345819, guid: 0a67756ce4f79dd95bd2db1f21d46b50,
        type: 3}
    - time: 0.6333333
      value: {fileID: 8728494954731998469, guid: 0a67756ce4f79dd95bd2db1f21d46b50,
        type: 3}
    - time: 0.7
      value: {fileID: 677352785994229425, guid: 0a67756ce4f79dd95bd2db1f21d46b50,
        type: 3}
    - time: 0.75
      value: {fileID: -2209605671114183639, guid: 0a67756ce4f79dd95bd2db1f21d46b50,
        type: 3}
    attribute: m_Sprite
    path: 
    classID: 212
    script: {fileID: 0}
  m_SampleRate: 60
  m_WrapMode: 0
  m_Bounds:
    m_Center: {x: 0, y: 0, z: 0}
    m_Extent: {x: 0, y: 0, z: 0}
  m_ClipBindingConstant:
    genericBindings:
    - serializedVersion: 2
      path: 0
      attribute: 0
      script: {fileID: 0}
      typeID: 212
      customType: 23
      isPPtrCurve: 1
    pptrCurveMapping:
    - {fileID: -1549070849450162739, guid: 0a67756ce4f79dd95bd2db1f21d46b50, type: 3}
    - {fileID: -5407492342766551737, guid: 0a67756ce4f79dd95bd2db1f21d46b50, type: 3}
    - {fileID: 1958406919399586573, guid: 0a67756ce4f79dd95bd2db1f21d46b50, type: 3}
    - {fileID: -5394594780932205545, guid: 0a67756ce4f79dd95bd2db1f21d46b50, type: 3}
    - {fileID: -5857673596709843543, guid: 0a67756ce4f79dd95bd2db1f21d46b50, type: 3}
    - {fileID: 264920849789172050, guid: 0a67756ce4f79dd95bd2db1f21d46b50, type: 3}
    - {fileID: -6016433232185940920, guid: 0a67756ce4f79dd95bd2db1f21d46b50, type: 3}
    - {fileID: -3624368819386776821, guid: 0a67756ce4f79dd95bd2db1f21d46b50, type: 3}
    - {fileID: -8601527344891939385, guid: 0a67756ce4f79dd95bd2db1f21d46b50, type: 3}
    - {fileID: 5552588835138848469, guid: 0a67756ce4f79dd95bd2db1f21d46b50, type: 3}
    - {fileID: 6323273551467345819, guid: 0a67756ce4f79dd95bd2db1f21d46b50, type: 3}
    - {fileID: 8728494954731998469, guid: 0a67756ce4f79dd95bd2db1f21d46b50, type: 3}
    - {fileID: 677352785994229425, guid: 0a67756ce4f79dd95bd2db1f21d46b50, type: 3}
    - {fileID: -2209605671114183639, guid: 0a67756ce4f79dd95bd2db1f21d46b50, type: 3}
  m_AnimationClipSettings:
    serializedVersion: 2
    m_AdditiveReferencePoseClip: {fileID: 0}
    m_AdditiveReferencePoseTime: 0
    m_StartTime: 0
    m_StopTime: 0.76666665
    m_OrientationOffsetY: 0
    m_Level: 0
    m_CycleOffset: 0
    m_HasAdditiveReferencePose: 0
    m_LoopTime: 0
    m_LoopBlend: 0
    m_LoopBlendOrientation: 0
    m_LoopBlendPositionY: 0
    m_LoopBlendPositionXZ: 0
    m_KeepOriginalOrientation: 0
    m_KeepOriginalPositionY: 1
    m_KeepOriginalPositionXZ: 0
    m_HeightFromFeet: 0
    m_Mirror: 0
  m_EditorCurves: []
  m_EulerEditorCurves: []
  m_HasGenericRootTransform: 0
  m_HasMotionFloatCurves: 0
  m_Events: []
